{
  "type": "service_account",
  "project_id": "qwikshop-4c809",
  "private_key_id": "83e510500ca0898a267ee21babeceb71a781b900",
  "private_key": "-----BEGIN PRIVATE KEY-----\nMIIEvgIBADANBgkqhkiG9w0BAQEFAASCBKgwggSkAgEAAoIBAQCWAQN+Gdv/IKBz\n0jbXSf0DQ2e2+y2jfeFsUQBqfnMiAvZ1Z9aDAnrq3wjqOxhUyurOf5uvYT+kE8fZ\nM2cQWPsHyS5lLjq6TuP39SThBN1WK2YIyTCcvUGvrrB90QnAoAEmLbTBaS/zWqW7\nzqg+bCe2a1dNcIoLlfRhNqtyE4Z3pTnM8ywc8wJbALp4PJ7WmCI3cM3QN+fGld9G\n2/fvkZnM6jEp5ixS9Uh7JnVUEPYaimlanGcB5XWBITv1vl+tD7sOeIF47WcAyhCF\nCYOUbx06OtjjwSzNJWvwwMBAKFihbl9FQ76BNBpQvz9EOMH3HKCOx9a0HwBjoAmB\naqV4c9xfAgMBAAECggEANiwfisbkAHtT9wAP9iguS6NoLVkA3m5znp6SO+N2yO2w\n/C2H9sBKi9AIdC7rVpQBwJmtK+U/Co5qOjKqIelAn0s0ii3r36TmB4Js0ybimGAL\n9VhTSge/VScNbiK0FvCx+YvAH6lRO92cxPqZIBIHNYYGfV0LPavmGcWYnRYYFdT0\nBj1NmpZbIzQtlMrMcJ/7+iv5Q4cGvf5Kac6d3V17Rkq3vevqZvzUa0p3B4vPH1K6\ngS7lv8Bb81PiXGx+XTD8kKM2BukDrKn4EEC1d+x6BhxfBSMANNo2ecvHt0CTHeU1\niIWAAP41QDb1w8a9RyNA74E+23p9+nBpZ55awoR/gQKBgQDPxmmL3ULtdFbck/cf\nZ+jVjFs5/xos6GtN/6rx8wobJ/LnP6d42OjHuH03zb1pu2j/gZzcSHY/aCY+adp/\nomts0BlgYDjZvXyStxcYMBZlGwg8U1YbQMDt6MQvZO2i3/tJJXhWxDZ26I+jCjTL\nrta9TKyTrfInqlfaBRBWKA+cLwKBgQC40fTAkaz9vL87NEPA/D5qBaOJWiI/jROA\ntNuI80cQ4hP+q4OedjTgM7mc3AEDRg9aJLJ0dRiN7ePeWVNW321L7tpGwez8IiTQ\ndc61Bb9z84Rp7XWyfxV/VD0Z4zrxprVJzq7NH/UiUh5Td+EUM5Yk0YHGU3m2iMGA\nsbOKRmfG0QKBgQCXlXTJYpqCbL82XAkN85wtuCGSNWgeXU5z8FQCAsNbvpB7X7hJ\n9U4W76UDQmmvKthWmHQdTgxfBBfqrwWG2rMvBr+MzYaMbK7mxwblUaf1CXy/rjkC\n1wIqUAhZX3PzwR8uZVTfUHU/2Tl5xGdyNlNadgbuExi5EZDYcZtSkBWbZwKBgC94\ndfX0NMujbDbHsNNjtqBCvINt7DgIg0berTiay9kRSHN0GEVeNSyU/IrGk1gE6bKM\nlG2HGfxyasHUjaxVjNwhCF1+N+F235/Pcn1acZdVp+ARRtbG/32J5Hu+uogQ+qVv\necRj/fGHyBRGSUCIE3t3eG65SBzTOWhVvDi65rLRAoGBAMQ6m+8SW82gTZZcnL9a\n4Zxqs1/icotv1z0ixysWCSNb0ncBYg/AU+uwytYEJVBOxumka+wNuTrXXMvbzxUr\nDyB/BDW2QGBtzAIcoweJI97vOeJ82ssN/fNjcBBe/htKKoHb4+5kyDeepwlLSfKl\nDlG4fOYsvZpJipOPPSg6QuXK\n-----END PRIVATE KEY-----\n",
  "client_email": "firebase-adminsdk-pnekh@qwikshop-4c809.iam.gserviceaccount.com",
  "client_id": "101772522949969436998",
  "auth_uri": "https://accounts.google.com/o/oauth2/auth",
  "token_uri": "https://oauth2.googleapis.com/token",
  "auth_provider_x509_cert_url": "https://www.googleapis.com/oauth2/v1/certs",
  "client_x509_cert_url": "https://www.googleapis.com/robot/v1/metadata/x509/firebase-adminsdk-pnekh%40qwikshop-4c809.iam.gserviceaccount.com"
}
